FAOtotal,meat,animalProducts
Animal Products,Bovine Meat,Milk - Excluding Butter
Meat,Meat Meal,"Milk, Whole"
Offals,Mutton & Goat Meat,"Fats, Animals, Raw"
Animal fats,Pigmeat,Whey
,Poultry Meat,"Butter, Ghee"
,"Offals, Edible",Cheese
,"Meat, Other",Cream
,,Eggs
